{
   "schemaVersion": "2.2",
   "description": "",
   "parameters": {
      "Message": {
         "type": "String",
         "decription": "Example",
         "default": "Hello World"
      }
   },
   "mainSteps": [
      {
         "action": "aws:runPowerShellScript",
         "name": "example",
         "inputs": {
            "runCommand": [
               "Write-Output 'thing'"
            ]
         }
      }
   ]
}